<?xml version="1.0" encoding="UTF-8"?>
<svg id="Layer_2" data-name="Layer 2" xmlns="http://www.w3.org/2000/svg" viewBox="0 0 24 24">
  <g id="Layer_1-2" data-name="Layer 1">
    <g>
      <rect width="24" height="24" fill="none"/>
      <path d="m9.11,19.6l2.74.1-.04,2.56c-.11.07-.23.14-.35.2-1.78.87-3.97.47-5.29-1.11-1.22-1.47-1.31-3.48-.39-5.03.11-.2.23-.38.38-.56l3.35.36-.4,3.48Zm4.32-11.95c-.05.27-.07.54-.07.8l2.82-1.85,1.9,2.95,2.18-1.66,1.59,2c.07-.2.14-.39.18-.6.45-2.38-1.1-4.67-3.47-5.12s-4.67,1.1-5.12,3.48Zm8.28,14.87l-4.17-.98c-.1-.02-.19-.07-.25-.15L6.05,9.3l-2.2,2.2c-.09.09-.22.15-.35.15s-.26-.05-.35-.15l-.1-.1c-.28-.28-.43-.64-.43-1.03s.15-.76.43-1.03l1.9-1.9-3.24-3.24c-.6-.6-1.27-1.63-.32-2.58.8-.8,1.78-.48,2.58.32l3.24,3.24,1.9-1.9c.57-.57,1.49-.57,2.06,0l.1.1c.2.2.2.51,0,.71l-2.2,2.2,12.1,11.23c.07.07.12.16.15.25l.98,4.17c.04.17-.01.35-.13.47s-.3.17-.47.13Zm-3.54-4.15c.2-.2.2-.51,0-.71l-9.47-9.47-.71.71,9.47,9.47c.2.2.51.2.71,0Z"/>
    </g>
  </g>
</svg>