<?xml version="1.0" encoding="UTF-8"?>
<svg id="Layer_2" data-name="Layer 2" xmlns="http://www.w3.org/2000/svg" viewBox="0 0 24 24">
  <g id="Layer_1-2" data-name="Layer 1">
    <g>
      <path d="m21.43,8.62c.29-1.24.37-2.71.23-4.11.7-.29,1.19-.98,1.19-1.79,0-1.07-.87-1.94-1.94-1.94s-1.94.87-1.94,1.94c0,.99.74,1.8,1.7,1.92.12,1.21.04,2.43-.15,3.44-.42-.14-.86-.18-1.31-.18s-.85.12-1.16.31c-.32-1.03-.78-2.06-1.2-2.88.37-.35.6-.85.6-1.39,0-1.07-.87-1.94-1.94-1.94s-1.94.87-1.94,1.94.87,1.94,1.94,1.94c.16,0,.32-.03.47-.06.48.94,1.02,2.17,1.29,3.28-.32.61-.42,1.31-.42,1.75,0,.92-.06,2.79-.68,3.76-.13.2-.54.38-.54.38,0,0-.06.21-.3-2.39-.33-3.56-3.45-6.29-7.61-6.29S.16,9.5.16,14.06c0,4.87,2.62,9.69,10.38,9.69,5.04,0,12.47-1.27,12.47-8.16,0-4.17-.65-6.09-1.58-6.97Zm-9.07,7.91c-.55-.03-.98-.5-.95-1.05.07-1.36-.22-2.39-.88-3.07-.8-.84-2.02-1-2.87-1-1.64.01-3.29,1-3.29,3.19,0,.75.24,1.38.68,1.76.41.36.99.49,1.7.38.66-.1,1.04-.37,1.13-.82.08-.41-.12-.85-.34-.98-.04-.02-.15-.09-.45.17-.42.36-1.05.32-1.41-.1-.36-.42-.32-1.05.1-1.41.86-.74,1.89-.89,2.76-.39.99.57,1.54,1.87,1.31,3.09-.24,1.29-1.29,2.2-2.8,2.43-.27.04-.53.06-.77.06-1.21,0-2.04-.47-2.54-.9-.89-.77-1.38-1.93-1.38-3.27,0-2.99,2.22-5.17,5.27-5.19,1.76-.01,3.3.55,4.33,1.62,1.05,1.1,1.53,2.63,1.43,4.56-.03.55-.51.97-1.05.95Z"/>
      <rect width="24" height="24" fill="none"/>
    </g>
  </g>
</svg>