<?xml version="1.0" encoding="UTF-8"?>
<svg id="Layer_2" data-name="Layer 2" xmlns="http://www.w3.org/2000/svg" xmlns:xlink="http://www.w3.org/1999/xlink" viewBox="0 0 38.47 51.82">
  <defs>
    <clipPath id="clippath">
      <path d="m.09,14.92c1.75,9.36,33.39,12.33,36,5.4,2.79-7.41-4.18-17.72-16.51-19.02S-.97,9.21.09,14.92Z" fill="none"/>
    </clipPath>
  </defs>
  <g id="Layer_1-2" data-name="Layer 1">
    <g>
      <path d="m17.6,51.82c7.05-.06,3.73-7.69,3.2-10.43-.5-2.54-2.38-5.46-2.01-10.6.15-2.08.86-4.6,1.66-6.85,0,0-3.86-.22-7.26-1.02-.55,2.78-1.08,5.68-1.25,7.12-.37,3.23-3.47,21.86,5.67,21.79Z" fill="#9fe6ff"/>
      <path d="m.09,14.92c1.75,9.36,33.39,12.33,36,5.4,2.79-7.41-4.18-17.72-16.51-19.02S-.97,9.21.09,14.92Z" fill="#069aff"/>
      <g clip-path="url(#clippath)">
        <g>
          <path d="m9.56,13.81c-.61,1.88-2.79,2.57-4.58,1.68-1.55-.76-2.27-2.46-1.81-3.89s2.03-2.33,3.71-1.98c1.95.41,3.3,2.31,2.69,4.19Z" fill="#fff"/>
          <ellipse cx="13.29" cy="2.23" rx="4.98" ry="2.2" transform="translate(-.13 .98) rotate(-4.21)" fill="#fff"/>
          <path d="m29.33,14.07c-.32,2.74-3.21,4.79-6.75,4.4-3.93-.43-6.79-3.58-6.03-6.81.72-3.05,4.35-4.6,7.82-3.69,3.15.83,5.27,3.48,4.96,6.1Z" fill="#fff"/>
          <circle cx="35.69" cy="15.28" r="2.78" fill="#fff"/>
          <path d="m31.36,6.57c.25.58-.27.79-1.64.24-2.45-.99-6.03-3.64-5.62-4.59.32-.73,3.03.63,4.92,2.02,1.23.9,2.11,1.81,2.34,2.33Z" fill="#fff"/>
        </g>
      </g>
    </g>
  </g>
</svg>