<?xml version="1.0" encoding="utf-8"?>
<!-- Generator: Adobe Illustrator 27.9.6, SVG Export Plug-In . SVG Version: 9.03 Build 54986)  -->
<svg version="1.1" xmlns="http://www.w3.org/2000/svg" xmlns:xlink="http://www.w3.org/1999/xlink" x="0px" y="0px"
	 viewBox="0 0 1137.8 85.2" style="enable-background:new 0 0 1137.8 85.2;" xml:space="preserve">
<style type="text/css">
	.st0{display:none;}
	.st1{display:inline;}
	.st2{fill:#FFB330;}
	.st3{fill:#A54304;}
	.st4{fill:#552102;}
	.st5{fill:#2B1101;}
	.st6{display:none;fill:#FFB330;stroke:#A54304;stroke-width:3;stroke-miterlimit:10;}
	.st7{font-family:'Smile';}
	.st8{font-size:72px;}
	.st9{fill:#FFB330;stroke:#A54304;stroke-width:3;stroke-miterlimit:10;}
	.st10{display:inline;fill:none;}
	.st11{fill-rule:evenodd;clip-rule:evenodd;fill:#0808C2;stroke:#0808C2;stroke-width:6.25;}
	.st12{fill-rule:evenodd;clip-rule:evenodd;fill:url(#SVGID_1_);stroke:#050579;stroke-width:4.17;}
	.st13{fill:#00A6FF;}
	.st14{fill:#0029EA;}
	.st15{fill:#0000A8;}
	.st16{fill:#280085;}
	.st17{fill:#00E1FF;}
	.st18{fill:#0000FF;}
	.st19{display:none;fill:#19E6D1;stroke:#000B89;stroke-width:3;stroke-miterlimit:10;}
	.st20{fill:#19E6D1;stroke:#000B89;stroke-width:3;stroke-miterlimit:10;}
</style>
<g id="GOLD" class="st0">
	<g id="Layer_2_copy_3" class="st1">
		<polygon class="st2" points="806.6,28.8 796.1,24.9 789.4,34.1 789.8,22.5 779.3,18.6 789.8,15.2 790.1,3.5 796.5,13.3 807,9.8 
			800.3,19.2 		"/>
		<polygon class="st3" points="813.5,59.9 788,57.2 777.5,82 772.2,55.4 746.6,52.5 768.9,39 763.6,12.4 782.6,30.5 804.8,17 
			794.4,41.7 		"/>
		<polygon class="st4" points="844.6,76.8 827.2,58.7 805.5,70.3 816.6,47.4 799.2,29 823.4,33 834.5,9.8 838.5,35.5 862.7,39.5 
			840.8,51.4 		"/>
		<polygon class="st5" points="865.6,76.8 857.8,68 847.3,73.2 852.9,62.5 845,53.5 856.4,55.8 862,45.1 863.4,57.3 874.7,59.6 
			864.3,64.8 		"/>
		<polygon class="st2" points="855.1,32.8 849.3,22.8 838.6,25.3 845.9,16.5 840.1,6.6 850.2,11.2 857.5,2.4 856.6,13.8 866.7,18.4 
			856,21.1 		"/>
		<polygon class="st3" points="881,31.7 875,32.2 873.6,38.5 871.2,32.6 865.1,33.2 869.8,29 867.2,23 872.5,26.3 877.2,22.1 
			875.8,28.4 		"/>
		<polygon class="st5" points="818.5,14.2 815.1,14.6 814.4,18.2 812.9,14.8 809.3,15.2 812,12.7 810.6,9.2 813.7,11.2 816.4,8.7 
			815.7,12.3 		"/>
	</g>
	<g id="Layer_2_copy_2" class="st1">
		<polygon class="st2" points="333,28.8 343.5,24.9 350.2,34.1 349.9,22.5 360.4,18.6 349.9,15.2 349.5,3.5 343.2,13.3 332.7,9.8 
			339.4,19.2 		"/>
		<polygon class="st3" points="326.1,59.9 351.7,57.2 362.1,82 367.5,55.4 393,52.5 370.7,39 376.1,12.4 357,30.5 334.9,17 
			345.2,41.7 		"/>
		<polygon class="st4" points="295,76.8 312.4,58.7 334.1,70.3 323.1,47.4 340.5,29 316.2,33 305.2,9.8 301.2,35.5 276.9,39.5 
			298.8,51.4 		"/>
		<polygon class="st5" points="274,76.8 281.8,68 292.3,73.2 286.7,62.5 294.7,53.5 283.3,55.8 277.7,45.1 276.2,57.3 265,59.6 
			275.3,64.8 		"/>
		<polygon class="st2" points="284.5,32.8 290.3,22.8 301,25.3 293.8,16.5 299.6,6.6 289.4,11.2 282.2,2.4 283.1,13.8 272.9,18.4 
			283.6,21.1 		"/>
		<polygon class="st3" points="258.6,31.7 264.6,32.2 266.1,38.5 268.4,32.6 274.6,33.2 269.9,29 272.4,23 267.2,26.3 262.4,22.1 
			263.9,28.4 		"/>
		<polygon class="st5" points="321.1,14.2 324.5,14.6 325.3,18.2 326.7,14.8 330.3,15.2 327.6,12.7 329.1,9.2 326,11.2 323.3,8.7 
			324,12.3 		"/>
	</g>
	<g id="TEXT" class="st1">
		<text transform="matrix(1 0 0 1 376.8628 66.3639)" class="st6 st7 st8">GOLD WINS!</text>
		<g>
			<path class="st9" d="M377.4,44c0-13.2,5-23.8,18.8-24.8h16.1c2.4,0,5,0.2,6.8,1.5c2.8,2,3,5.7,3,6.6v3.7c0,5.9-6.7,6.3-8.8,6.3
				h-10.2c-4.5,0-5.2,2.2-5.2,12.7c0,0.6,0.4,1.6,1.8,1.6c0.6,0,1-0.7,1.1-1.5v-3.7c0-1.4,0.2-6.8,4.6-6.8h12.3c0,0,4.5,0.1,4.5,5.7
				v11.4c0,1.4-0.1,9.4-9.1,9.4c-9.7,0-18.4,0.1-18.1,0.1C383.1,66.4,377.4,55.6,377.4,44z"/>
			<path class="st9" d="M466.7,40.9c0,1.7-0.1,25.6-19.8,25.6c-12.5,0-23.5-7.7-23.5-23.4c0-5.5,1.5-23.8,22.4-23.8
				C464.4,19.2,466.7,33.8,466.7,40.9z M450.4,47.6c0-2.7-1.4-5.2-4.5-5.2c-2.7,0-4.2,2.4-4.2,5.2c0,2.3,1.5,4.8,4.6,4.9
				C448.9,52.5,450.4,49.9,450.4,47.6z"/>
			<path class="st9" d="M467.6,23.7c0-1.2,0.8-3.8,4.8-3.8l11-0.6c0.9,0,4.7,0.2,4.7,5.2V49c0,0.1,0.1,0.3,0.4,0.3
				c1.8,0,5.6-1.2,6.7-1.2c1.2,0,3,0.6,3,4c0,5-0.1,9.9-0.1,9.9s0.1,4.2-4.1,4.2h-22.3c-1.1,0-4.1-0.5-4.1-5.3V23.7z"/>
			<path class="st9" d="M543.1,41.7c0,21.9-16.9,25-27.5,25c-2.2,0-4.4-0.2-7.4-0.2c-3.5,0-7.6-2-7.6-6.2V22.9
				c0-0.8,0.3-3.7,4.8-3.7h15.1c3.3,0,21.4,0.9,22.5,20C543,39.4,543.1,40.7,543.1,41.7z M518.5,38v8.4c0,0.6,0.1,1.7,1.4,1.7
				c1.6,0,4.1-2.2,4.1-5.5c0-3.5-1.5-6-4.1-6.3C518.8,36.3,518.5,37.3,518.5,38z"/>
			<path class="st9" d="M583.6,47.6c2-18.4,2-19.6,2-20.8c0.1-2.8,0.6-4.8,2.2-5.3c1.9-0.5,8.4-1.9,12.3-1.9c1.4,0,2.5,0.1,3.2,0.6
				c2.3,2.1,2.7,11.2,3,18.6c0.1,4.9,0.3,7.9,0.6,7.9h0.6c0.2-1.2,1.9-14.3,2.5-20.2c0.6-6.3,4.7-6.6,5.6-6.6
				c4.1-0.5,6.3-0.6,7.6-0.6c4.1,0,5.7,2.2,5.7,7.6c0,7.6-4.5,23.1-9.5,33.8c0.1,0-1.9,5.6-7.4,5.6h-10.9c-2.6,0-4.1-3.2-5.1-4.5
				h-0.9c-1,1.6-3.2,4.5-6.6,4.5h-10.2c-3.8,0-5.5-3-6.3-4.5c-5.3-11.7-10-25.1-10-34.4c0-3.9,1.2-6.8,3.7-7.5
				c2.7-0.6,6.3-0.7,9.6-0.7c1,0,5.2,0.3,5.7,6.6C581.5,31.9,583.4,47.6,583.6,47.6z"/>
			<path class="st9" d="M629.5,23.7c0-1.2,0.8-3.8,4.8-3.8l11-0.6c0.9,0,4.7,0.2,4.7,5.2c0,5.5-0.1,36.1-0.1,36.1
				c0,1.3-0.3,5.8-4.7,5.8h-11.6c-1.1,0-4.1-0.5-4.1-5.3V23.7z"/>
			<path class="st9" d="M652.4,24.5c0-1.3,0.4-5.3,4.8-5.3c5.3,0,9.2,0.1,9.6,0.1c1.2,0,4.2,0.4,6.7,6.1c1.5,3.5,2.6,6.2,3.4,8.4
				l0.7-0.1c-0.1-10.2-0.2-10.4-0.2-10.7c0-1.2,0.6-3.7,3.4-3.7h13.4c1,0,4.1,0.4,4.1,4.6v36.7c0,0.8-0.2,5.9-5.3,5.9h-11.4
				c-1.4-0.1-2.6-0.6-3.6-1.2c-1.9-1.2-3.2-4-3.5-10l-1.9-0.9c0,5.9,0.1,8.1,0.1,8.7c0,1.9-1.5,3.3-4.2,3.3h-10.7
				c-0.8,0-5.4-0.2-5.4-7.5V24.5z"/>
			<path class="st9" d="M719.4,35.9c11.7,2.3,19.2,6.1,19.2,15.3c0,9.5-8.8,15.2-19.5,15.2s-16.5-3.6-16.5-3.6
				c-3.1-1.2-3.8-2.8-3.8-4.1c0-1.4,0.7-2.3,3.6-8.4c0.8-1.7,2.2-2,3.3-2c0.9,0,1.7,0.2,1.7,0.2c4.7,2.2,8.2,3.7,10.3,3.9l0.5-2.2
				c-10.5-2.4-17.4-6.9-17.4-15.8c0-9.5,8.3-15.2,18.7-15.2c11.7,0,19.2,3.5,19.2,7.6c0,1.3-0.7,2.4-0.7,2.4s-1.4,2.8-2.7,6
				c-0.6,1.4-1.9,2-3.2,2c-0.4,0-0.9-0.1-1.5-0.3c-4.8-2.2-8.4-2.7-10.7-2.7L719.4,35.9z"/>
			<path class="st9" d="M740.9,22.7c0-0.5,0.1-3.5,3.7-3.7c3.7-0.2,9.3-0.2,9.3-0.2c1.8,0,4.5,0.2,4.5,2.7v2.4
				c0,9-0.3,12.9-0.3,14.5c0,0.8,0.1,1,0.3,1s0.6-0.3,1-0.3c0.3,0,0.6,0.2,0.6,0.9l0.5,10.2c-1.4,2.1-4,3.1-8.7,3.1
				c-7.7,0-11.1-5.2-11.1-10.6L740.9,22.7z M759.7,62.5c0,0.7,0,9.7-8.4,9.7c-5.3,0-10.1-2.9-10.1-8.9c0-2.1,0.6-8.9,9.7-8.9
				C758.7,54.4,759.7,60,759.7,62.5z"/>
		</g>
	</g>
</g>
<g id="Layer_1" xmlns:serif="http://www.serif.com/" class="st0">
	<rect id="BLUE-VICTORY-SVG" x="-96.2" y="-179.9" serif:id="BLUE VICTORY SVG" class="st10" width="1341.7" height="502.1">
	</rect>
	<g class="st1">
		<path class="st11" d="M93.8,38.5c9.1,3.7,15.1,10.3,15.1,17.6c0,11.7-14.9,21.1-33.3,21.1H4.2V10.5h66.4
			c17.5,0,31.6,7.5,31.6,16.7C102.2,31.6,99,35.6,93.8,38.5L93.8,38.5z M39,35h22.5c3.2,0,5.8-1.5,5.8-3.5c0-1.9-2.6-3.5-5.8-3.5H39
			V35z M39,59.6h29.3c3.1,0,5.8-1.5,5.8-3.5c0-1.9-2.7-3.5-5.8-3.5H39V59.6z M149.1,59.6h56.7v17.6h-91.5V10.5h34.8V59.6L149.1,59.6
			z M262,59.6c10,0,18.1-7.5,18.1-16.6V10.5H315v42.6c0,16-23.7,28.9-52.9,28.9H262c-29.2,0-52.9-12.9-52.9-28.9V10.5H244V43
			C244,52.1,252,59.6,262,59.6L262,59.6z M355.2,52.6v6.9h56.7v17.6h-91.5V10.5h91.5v17.6h-56.7V35h56.7v17.6H355.2z M444.9,10.5
			h35.3L498.7,47l18.5-36.5h35.3l-38.5,66.7h-30.7L444.9,10.5L444.9,10.5z M592.9,10.5v66.7h-34.8V10.5L592.9,10.5L592.9,10.5z
			 M650.9,55.1c6.5,0,10.3-1.7,14.4-6.9h37.8C700,67,677.8,81.4,650.9,81.4c-29.1,0-52.6-16.9-52.6-37.6s23.5-37.6,52.6-37.6
			c26.9,0,49.1,14.5,52.2,33.2h-37.8c-4.1-5.2-7.9-6.8-14.4-6.8c-8.7,0-15.7,5.1-15.7,11.2C635.2,50,642.2,55.1,650.9,55.1
			L650.9,55.1z M774.8,28.1v49.1H740V28.1h-35.5V10.5h105.8v17.6H774.8z M813.7,43.8c0-20.7,23.5-37.6,52.6-37.6
			s52.6,16.9,52.6,37.6s-23.5,37.6-52.6,37.6C837.2,81.4,813.7,64.6,813.7,43.8z M850.5,43.8c0,6.2,7.1,11.3,15.7,11.3
			c8.6,0,15.7-5.1,15.7-11.3c0-6.1-7.1-11.2-15.7-11.2C857.6,32.6,850.5,37.7,850.5,43.8z M1033.8,77.2h-39.2l-26.3-26.7
			c10.5-2.4,19.5-6.3,19.5-14c0-4.7-3.4-8.4-7.6-8.4h-21v49.1h-34.8V10.5H993c20.3,0,36.7,6.3,36.7,21.6c0,9.7-7,18.1-17.7,23.1
			L1033.8,77.2L1033.8,77.2z M1028.8,10.5h38.7l14.2,15l14.3-15h38.7l-35.5,33.3v33.3h-34.8V43.8L1028.8,10.5L1028.8,10.5z"/>
		
			<linearGradient id="SVGID_1_" gradientUnits="userSpaceOnUse" x1="-392.2313" y1="581.997" x2="-391.2313" y2="581.997" gradientTransform="matrix(8.674580e-15 -141.667 -141.667 -8.674580e-15 83017.1016 -55444.0508)">
			<stop  offset="0" style="stop-color:#FFFFFF"/>
			<stop  offset="0.45" style="stop-color:#A0A0A0"/>
			<stop  offset="0.57" style="stop-color:#FFFFFF"/>
			<stop  offset="0.68" style="stop-color:#555555"/>
			<stop  offset="1" style="stop-color:#FFFFFF"/>
		</linearGradient>
		<path class="st12" d="M91.7,34.3c9.1,3.7,15.1,10.3,15.1,17.6c0,11.7-14.9,21.1-33.3,21.1H2.1V6.3h66.4c17.5,0,31.6,7.5,31.6,16.7
			C100.1,27.4,96.9,31.4,91.7,34.3L91.7,34.3z M36.9,30.9h22.5c3.2,0,5.8-1.5,5.8-3.5c0-1.9-2.6-3.5-5.8-3.5H36.9V30.9z M36.9,55.4
			h29.3c3.1,0,5.8-1.5,5.8-3.5c0-1.9-2.7-3.5-5.8-3.5H36.9V55.4L36.9,55.4z M147,55.4h56.7V73h-91.5V6.3H147L147,55.4L147,55.4z
			 M260,55.4c10,0,18.1-7.5,18.1-16.6V6.3h34.8v42.6c0,16-23.7,28.9-52.9,28.9H260c-29.2,0-52.9-12.9-52.9-28.9V6.3h34.8v32.5
			C241.9,47.9,250,55.4,260,55.4L260,55.4z M353.2,48.5v6.9h56.7V73h-91.5V6.3h91.5v17.6h-56.7v6.9h56.7v17.6L353.2,48.5L353.2,48.5
			z M442.8,6.3h35.3l18.5,36.5l18.5-36.5h35.3L512,73h-30.7L442.8,6.3z M590.8,6.3V73H556V6.3H590.8z M648.8,50.9
			c6.5,0,10.3-1.7,14.4-6.9H701c-3.1,18.7-25.3,33.2-52.2,33.2c-29.1,0-52.6-16.9-52.6-37.6c0-20.7,23.5-37.6,52.6-37.6
			c26.9,0,49.1,14.5,52.2,33.2h-37.8c-4.1-5.2-7.9-6.8-14.4-6.8c-8.7,0-15.7,5.1-15.7,11.2C633.1,45.9,640.2,50.9,648.8,50.9
			L648.8,50.9z M772.7,23.9V73h-34.8V23.9h-35.5V6.3h105.8v17.6H772.7z M811.6,39.7c0-20.7,23.5-37.6,52.6-37.6
			c29.1,0,52.6,16.9,52.6,37.6c0,20.7-23.5,37.6-52.6,37.6C835.1,77.3,811.6,60.4,811.6,39.7z M848.5,39.7c0,6.2,7.1,11.3,15.7,11.3
			c8.6,0,15.7-5.1,15.7-11.3c0-6.1-7.1-11.2-15.7-11.2C855.5,28.5,848.5,33.5,848.5,39.7z M1031.7,73h-39.2l-26.3-26.7
			c10.5-2.4,19.5-6.3,19.5-14c0-4.7-3.4-8.4-7.6-8.4h-21V73h-34.8V6.3h68.7c20.3,0,36.7,6.3,36.7,21.6c0,9.7-7,18.1-17.7,23.1
			L1031.7,73L1031.7,73z M1026.8,6.3h38.7l14.2,15l14.3-15h38.7L1097,39.7V73h-34.8V39.7L1026.8,6.3L1026.8,6.3z"/>
	</g>
</g>
<g id="BLUE">
	<g id="Layer_2">
		<polygon class="st13" points="805.6,28.8 795.1,24.9 788.4,34.1 788.8,22.5 778.3,18.6 788.8,15.2 789.1,3.5 795.5,13.3 806,9.8 
			799.3,19.2 		"/>
		<polygon class="st14" points="812.5,59.9 787,57.2 776.5,82 771.2,55.4 745.6,52.5 767.9,39 762.6,12.4 781.6,30.5 803.8,17 
			793.4,41.7 		"/>
		<polygon class="st15" points="843.6,76.8 826.2,58.7 804.5,70.3 815.6,47.4 798.2,29 822.4,33 833.5,9.8 837.5,35.5 861.7,39.5 
			839.8,51.4 		"/>
		<polygon class="st16" points="864.6,76.8 856.8,68 846.3,73.2 851.9,62.5 844,53.5 855.4,55.8 861,45.1 862.4,57.3 873.7,59.6 
			863.3,64.8 		"/>
		<polygon class="st17" points="854.1,32.8 848.3,22.8 837.6,25.3 844.9,16.5 839.1,6.6 849.2,11.2 856.5,2.4 855.6,13.8 
			865.7,18.4 855,21.1 		"/>
		<polygon class="st18" points="880,31.7 874,32.2 872.6,38.5 870.2,32.6 864.1,33.2 868.8,29 866.2,23 871.5,26.3 876.2,22.1 
			874.8,28.4 		"/>
		<polygon class="st16" points="817.5,14.2 814.1,14.6 813.4,18.2 811.9,14.8 808.3,15.2 811,12.7 809.6,9.2 812.7,11.2 815.4,8.7 
			814.7,12.3 		"/>
	</g>
	<g id="Layer_2_copy">
		<polygon class="st13" points="333,28.8 343.5,24.9 350.2,34.1 349.9,22.5 360.4,18.6 349.9,15.2 349.5,3.5 343.2,13.3 332.7,9.8 
			339.4,19.2 		"/>
		<polygon class="st14" points="326.1,59.9 351.7,57.2 362.1,82 367.5,55.4 393,52.5 370.7,39 376.1,12.4 357,30.5 334.9,17 
			345.2,41.7 		"/>
		<polygon class="st15" points="295,76.8 312.4,58.7 334.1,70.3 323.1,47.4 340.5,29 316.2,33 305.2,9.8 301.2,35.5 276.9,39.5 
			298.8,51.4 		"/>
		<polygon class="st16" points="274,76.8 281.8,68 292.3,73.2 286.7,62.5 294.7,53.5 283.3,55.8 277.7,45.1 276.2,57.3 265,59.6 
			275.3,64.8 		"/>
		<polygon class="st17" points="284.5,32.8 290.3,22.8 301,25.3 293.8,16.5 299.6,6.6 289.4,11.2 282.2,2.4 283.1,13.8 272.9,18.4 
			283.6,21.1 		"/>
		<polygon class="st18" points="258.6,31.7 264.6,32.2 266.1,38.5 268.4,32.6 274.6,33.2 269.9,29 272.4,23 267.2,26.3 262.4,22.1 
			263.9,28.4 		"/>
		<polygon class="st16" points="321.1,14.2 324.5,14.6 325.3,18.2 326.7,14.8 330.3,15.2 327.6,12.7 329.1,9.2 326,11.2 323.3,8.7 
			324,12.3 		"/>
	</g>
	<g id="TEXT_copy">
		<text transform="matrix(1 0 0 1 379.8511 66.3639)" class="st19 st7 st8">BLUE WINS!</text>
		<g>
			<path class="st20" d="M416.7,41c4.8,1.4,8,5.3,8,10.2c0,7.3-4,15.4-24.1,15.4c-17.7,0-18.9-8-18.9-18V38.4
				c0-14,1.1-19.2,18.6-19.2c18.4,0,21.7,6.5,21.7,13.3C422,37.2,419.5,39.9,416.7,41z M399.7,37.2c0.1,0.1,0.4,0.1,0.8,0.1
				c1.2,0,3.2-0.3,3.5-2.1c0-1.6-1.7-1.9-3-1.9c-0.6,0-0.9,0-1.2,0.1V37.2z M401.5,48.6h-0.9v4.5c1.2-0.1,4-0.4,4.3-2.3v-0.3
				C404.8,48.9,403.1,48.6,401.5,48.6z"/>
			<path class="st20" d="M426.2,23.7c0-1.2,0.8-3.8,4.8-3.8l11-0.6c0.9,0,4.7,0.2,4.7,5.2V49c0,0.1,0.1,0.3,0.4,0.3
				c1.8,0,5.6-1.2,6.7-1.2c1.2,0,3,0.6,3,4c0,5-0.1,9.9-0.1,9.9s0.1,4.2-4.1,4.2h-22.3c-1.1,0-4.1-0.5-4.1-5.3V23.7z"/>
			<path class="st20" d="M482.5,24c0.4-4.5,2.9-4.5,6.6-4.8h6.5c4.9,0,7.3,0.8,7.3,7.1v15.4c0,10.7-2.3,24.6-22.5,24.6
				c-20.2,0-22.5-14-22.5-24.6V26.3c0-6.3,2.4-7.1,7.3-7.1h6.2c3.4,0.2,5.8,0.4,5.8,4.8v19c0.2,1.5,1.1,2.7,2.9,2.7
				c1.7,0,2.5-1.2,2.5-2.7V24z"/>
			<path class="st20" d="M533.9,49.9H523c-1.1,0-1.6,0.1-1.6,1.1c0,0.7,1,0.8,1.7,0.8h13c3.7,0,4,2.5,4,3.7v7.3
				c0,3.4-3.2,3.6-4.2,3.7h-23.8c-6.1,0-6.4-5-6.4-6.4V25.6c0-1.4,0.3-6.4,6.4-6.4H536c1,0,4.2,0.2,4.2,3.6v7.4c0,1.2-0.4,3.7-4,3.7
				h-13c-0.7,0-1.7,0.1-1.7,0.8c0,0.9,0.5,1,1.6,1h10.9c0.6,0,3.8,0.1,3.8,4v6.2C537.7,49.8,534.4,49.9,533.9,49.9z"/>
			<path class="st20" d="M580.6,47.6c2-18.4,2-19.6,2-20.8c0.1-2.8,0.6-4.8,2.2-5.3c1.9-0.5,8.4-1.9,12.3-1.9c1.4,0,2.5,0.1,3.2,0.6
				c2.3,2.1,2.7,11.2,3,18.6c0.1,4.9,0.3,7.9,0.6,7.9h0.6c0.2-1.2,1.9-14.3,2.5-20.2c0.6-6.3,4.7-6.6,5.6-6.6
				c4.1-0.5,6.3-0.6,7.6-0.6c4.1,0,5.7,2.2,5.7,7.6c0,7.6-4.5,23.1-9.5,33.8c0.1,0-1.9,5.6-7.4,5.6h-10.9c-2.6,0-4.1-3.2-5.1-4.5
				h-0.9c-1,1.6-3.2,4.5-6.6,4.5h-10.2c-3.8,0-5.5-3-6.3-4.5c-5.3-11.7-10-25.1-10-34.4c0-3.9,1.2-6.8,3.7-7.5
				c2.7-0.6,6.3-0.7,9.6-0.7c1,0,5.2,0.3,5.7,6.6C578.5,31.9,580.4,47.6,580.6,47.6z"/>
			<path class="st20" d="M626.5,23.7c0-1.2,0.8-3.8,4.8-3.8l11-0.6c0.9,0,4.7,0.2,4.7,5.2c0,5.5-0.1,36.1-0.1,36.1
				c0,1.3-0.3,5.8-4.7,5.8h-11.6c-1.1,0-4.1-0.5-4.1-5.3V23.7z"/>
			<path class="st20" d="M649.4,24.5c0-1.3,0.4-5.3,4.8-5.3c5.3,0,9.2,0.1,9.6,0.1c1.2,0,4.2,0.4,6.7,6.1c1.5,3.5,2.6,6.2,3.4,8.4
				l0.7-0.1c-0.1-10.2-0.2-10.4-0.2-10.7c0-1.2,0.6-3.7,3.4-3.7h13.4c1,0,4.1,0.4,4.1,4.6v36.7c0,0.8-0.2,5.9-5.3,5.9h-11.4
				c-1.4-0.1-2.6-0.6-3.6-1.2c-1.9-1.2-3.2-4-3.5-10l-1.9-0.9c0,5.9,0.1,8.1,0.1,8.7c0,1.9-1.5,3.3-4.2,3.3h-10.7
				c-0.8,0-5.4-0.2-5.4-7.5V24.5z"/>
			<path class="st20" d="M716.4,35.9c11.7,2.3,19.2,6.1,19.2,15.3c0,9.5-8.8,15.2-19.5,15.2s-16.5-3.6-16.5-3.6
				c-3.1-1.2-3.8-2.8-3.8-4.1c0-1.4,0.7-2.3,3.6-8.4c0.8-1.7,2.2-2,3.3-2c0.9,0,1.7,0.2,1.7,0.2c4.7,2.2,8.2,3.7,10.3,3.9l0.5-2.2
				c-10.5-2.4-17.4-6.9-17.4-15.8c0-9.5,8.3-15.2,18.7-15.2c11.7,0,19.2,3.5,19.2,7.6c0,1.3-0.7,2.4-0.7,2.4s-1.4,2.8-2.7,6
				c-0.6,1.4-1.9,2-3.2,2c-0.4,0-0.9-0.1-1.5-0.3c-4.8-2.2-8.4-2.7-10.7-2.7L716.4,35.9z"/>
			<path class="st20" d="M737.9,22.7c0-0.5,0.1-3.5,3.7-3.7c3.7-0.2,9.3-0.2,9.3-0.2c1.8,0,4.5,0.2,4.5,2.7v2.4
				c0,9-0.3,12.9-0.3,14.5c0,0.8,0.1,1,0.3,1c0.2,0,0.6-0.3,1-0.3c0.3,0,0.6,0.2,0.6,0.9l0.5,10.2c-1.4,2.1-4,3.1-8.7,3.1
				c-7.7,0-11.1-5.2-11.1-10.6L737.9,22.7z M756.7,62.5c0,0.7,0,9.7-8.4,9.7c-5.3,0-10.1-2.9-10.1-8.9c0-2.1,0.6-8.9,9.7-8.9
				C755.8,54.4,756.7,60,756.7,62.5z"/>
		</g>
	</g>
</g>
</svg>
