<svg width="766" height="110" viewBox="0 0 766 110" fill="none" xmlns="http://www.w3.org/2000/svg">
<path d="M146.781 0H206.479L154.74 55L206.479 110H146.781L96.0369 55L146.781 0Z" fill="#863A08"/>
<path d="M50.7438 0H110.442L58.7036 55L110.442 110H50.7438L0 55L50.7438 0Z" fill="#743207"/>
<path d="M762 0C764.209 0 766 1.79086 766 4V106C766 108.209 764.209 110 762 110L242.837 110L189.673 55L242.837 0H762Z" fill="#DB5C09"/>
</svg>
