<?xml version="1.0" encoding="UTF-8"?>
<svg height="10" width="10" id="Layer_2" data-name="Layer 2" xmlns="http://www.w3.org/2000/svg"
  viewBox="0 0 26.41 26.41">
  <g id="Layer_1-2" data-name="Layer 1">
    <g>
      <path d="m22.35,15.22c0,6.28-4.09,9.36-9.14,9.36s-9.14-3.07-9.14-9.36S8.16,1.83,13.2,1.83s9.14,7.11,9.14,13.4Z"
        fill="#287fff" />
      <polygon
        points="26.41 2.41 24 0 13.21 10.79 2.41 0 0 2.41 10.79 13.21 0 24 2.41 26.41 13.21 15.62 24 26.41 26.41 24 15.62 13.21 26.41 2.41"
        fill="red" />
    </g>
  </g>
</svg>